…
1: In st_read.DBIObject(conn, query = query) :
  Could not find a simple features geometry column. Will return a `data.frame`.
2: In st_read.DBIObject(conn, query = query) :
  Could not find a simple features geometry column. Will return a `data.frame`.
3: In st_read.DBIObject(conn, query = query) :
  Could not find a simple features geometry column. Will return a `data.frame`.
4: In st_read.DBIObject(conn, query = query) :
  Could not find a simple features geometry column. Will return a `data.frame`.
5: In st_read.DBIObject(conn, query = query) :
  Could not find a simple features geometry column. Will return a `data.frame`.
6: In st_read.DBIObject(conn, query = query) :
  Could not find a simple features geometry column. Will return a `data.frame`.
7: In st_read.DBIObject(conn, query = query) :
  Could not find a simple features geometry column. Will return a `data.frame`.
# A tibble: 24,165 × 5
   id_segment mapping_code_bt mapping_code_ch mapping_code_co mapping_code_sk
        <int> <chr>           <chr>           <chr>           <chr>          
 1       9688 ""              ""              ""              ""             
 2       3045 ""              ""              ""              ""             
 3      16974 ""              ""              ""              ""             
 4      16975 ""              ""              ""              ""             
 5      16976 ""              ""              ""              ""             
 6      16977 ""              ""              ""              ""             
 7      16978 ""              ""              ""              ""             
 8      16979 ""              ""              ""              ""             
 9      16980 ""              ""              ""              ""             
10      16989 ""              ""              ""              ""             
# ℹ 24,155 more rows
…
3: In st_read.DBIObject(conn, query = query) :
  Could not find a simple features geometry column. Will return a `data.frame`.
4: In st_read.DBIObject(conn, query = query) :
  Could not find a simple features geometry column. Will return a `data.frame`.
5: In st_read.DBIObject(conn, query = query) :
  Could not find a simple features geometry column. Will return a `data.frame`.
6: In st_read.DBIObject(conn, query = query) :
  Could not find a simple features geometry column. Will return a `data.frame`.
7: In st_read.DBIObject(conn, query = query) :
  Could not find a simple features geometry column. Will return a `data.frame`.
8: In st_read.DBIObject(conn, query = query) :
  Could not find a simple features geometry column. Will return a `data.frame`.
9: In st_read.DBIObject(conn, query = query) :
  Could not find a simple features geometry column. Will return a `data.frame`.
# A tibble: 42,861 × 7
   id_segment mapping_code_bt    mapping_code_ch mapping_code_co mapping_code_pk
        <int> <chr>              <chr>           <chr>           <chr>          
 1      42783 ACCESS;NONE;INTER… ACCESS;NONE;IN… ACCESS;NONE;IN… ACCESS;NONE;IN…
 2      41412 SPAWN;NONE         SPAWN;NONE      SPAWN;NONE      SPAWN;NONE     
 3      41413 SPAWN;NONE         SPAWN;NONE      SPAWN;NONE      SPAWN;NONE     
 4      41414 SPAWN;NONE         SPAWN;NONE      SPAWN;NONE      SPAWN;NONE     
 5      41415 SPAWN;NONE         SPAWN;NONE      SPAWN;NONE      SPAWN;NONE     
 6      41464 SPAWN;NONE         SPAWN;NONE      SPAWN;NONE      SPAWN;NONE     
 7      41552 SPAWN;ASSESSED     SPAWN;ASSESSED  SPAWN;ASSESSED  SPAWN;ASSESSED 
 8      41465 SPAWN;NONE         SPAWN;NONE      SPAWN;NONE      SPAWN;NONE     
 9      41466 SPAWN;NONE         SPAWN;NONE      SPAWN;NONE      SPAWN;NONE     
10      41467 SPAWN;NONE         SPAWN;NONE      SPAWN;NONE      SPAWN;NONE     
# ℹ 42,851 more rows
# ℹ 2 more variables: mapping_code_sk <chr>, mapping_code_st <chr>
…
Warning messages:
1: In st_read.DBIObject(conn, query = query) :
  Could not find a simple features geometry column. Will return a `data.frame`.
2: In st_read.DBIObject(conn, query = query) :
  Could not find a simple features geometry column. Will return a `data.frame`.
3: In st_read.DBIObject(conn, query = query) :
  Could not find a simple features geometry column. Will return a `data.frame`.
4: In st_read.DBIObject(conn, query = query) :
  Could not find a simple features geometry column. Will return a `data.frame`.
# A tibble: 17,420 × 2
   id_segment mapping_code_bt               
        <int> <chr>                         
 1      15268 "ACCESS;ASSESSED;INTERMITTENT"
 2      15269 "ACCESS;ASSESSED"             
 3      15309 ""                            
 4      15270 "ACCESS;ASSESSED"             
 5      15271 "ACCESS;ASSESSED"             
 6      15273 "ACCESS;ASSESSED;INTERMITTENT"
 7      15274 "ACCESS;ASSESSED;INTERMITTENT"
 8      15275 "ACCESS;ASSESSED;INTERMITTENT"
 9      15277 "REAR;DAM"                    
10      15278 "ACCESS;DAM"                  
# ℹ 17,410 more rows
…
Warning messages:
1: In st_read.DBIObject(conn, query = query) :
  Could not find a simple features geometry column. Will return a `data.frame`.
2: In st_read.DBIObject(conn, query = query) :
  Could not find a simple features geometry column. Will return a `data.frame`.
3: In st_read.DBIObject(conn, query = query) :
  Could not find a simple features geometry column. Will return a `data.frame`.
4: In st_read.DBIObject(conn, query = query) :
  Could not find a simple features geometry column. Will return a `data.frame`.
5: In st_read.DBIObject(conn, query = query) :
  Could not find a simple features geometry column. Will return a `data.frame`.
6: In st_read.DBIObject(conn, query = query) :
  Could not find a simple features geometry column. Will return a `data.frame`.
# A tibble: 9,332 × 4
   id_segment mapping_code_bt mapping_code_ch mapping_code_sk
        <int> <chr>           <chr>           <chr>          
 1       7599 "REAR;ASSESSED" ""              ""             
 2       7616 ""              ""              ""             
 3       7617 ""              ""              ""             
 4       7618 ""              ""              ""             
 5       7619 ""              ""              ""             
 6       7620 ""              ""              ""             
 7       7621 ""              ""              ""             
 8       7625 "ACCESS;NONE"   "ACCESS;NONE"   "ACCESS;NONE"  
 9       7626 "ACCESS;NONE"   "ACCESS;NONE"   "ACCESS;NONE"  
10       7627 "ACCESS;NONE"   "ACCESS;NONE"   "ACCESS;NONE"  
# ℹ 9,322 more rows
…
4: In st_read.DBIObject(conn, query = query) :
  Could not find a simple features geometry column. Will return a `data.frame`.
5: In st_read.DBIObject(conn, query = query) :
  Could not find a simple features geometry column. Will return a `data.frame`.
6: In st_read.DBIObject(conn, query = query) :
  Could not find a simple features geometry column. Will return a `data.frame`.
7: In st_read.DBIObject(conn, query = query) :
  Could not find a simple features geometry column. Will return a `data.frame`.
8: In st_read.DBIObject(conn, query = query) :
  Could not find a simple features geometry column. Will return a `data.frame`.
9: In st_read.DBIObject(conn, query = query) :
  Could not find a simple features geometry column. Will return a `data.frame`.
10: In st_read.DBIObject(conn, query = query) :
  Could not find a simple features geometry column. Will return a `data.frame`.
# A tibble: 8,866 × 8
   id_segment mapping_code_bt mapping_code_ch mapping_code_cm mapping_code_co
        <int> <chr>           <chr>           <chr>           <chr>          
 1       6657 ""              ""              ""              ""             
 2       6660 ""              ""              ""              ""             
 3       6672 ""              ""              ""              ""             
 4       6706 "SPAWN;NONE"    "SPAWN;NONE"    "SPAWN;NONE"    "SPAWN;NONE"   
 5       6707 "SPAWN;NONE"    "SPAWN;NONE"    "SPAWN;NONE"    "SPAWN;NONE"   
 6       6708 "SPAWN;NONE"    "SPAWN;NONE"    "SPAWN;NONE"    "SPAWN;NONE"   
 7       6709 "SPAWN;NONE"    "SPAWN;NONE"    "SPAWN;NONE"    "SPAWN;NONE"   
 8       6710 "SPAWN;NONE"    "SPAWN;NONE"    "SPAWN;NONE"    "SPAWN;NONE"   
 9       6713 "SPAWN;NONE"    "REAR;NONE"     "SPAWN;NONE"    "SPAWN;NONE"   
10       6715 "SPAWN;NONE"    "REAR;NONE"     "SPAWN;NONE"    "SPAWN;NONE"   
# ℹ 8,856 more rows
# ℹ 3 more variables: mapping_code_pk <chr>, mapping_code_sk <chr>,
#   mapping_code_st <chr>
…
1: In st_read.DBIObject(conn, query = query) :
  Could not find a simple features geometry column. Will return a `data.frame`.
2: In st_read.DBIObject(conn, query = query) :
  Could not find a simple features geometry column. Will return a `data.frame`.
3: In st_read.DBIObject(conn, query = query) :
  Could not find a simple features geometry column. Will return a `data.frame`.
4: In st_read.DBIObject(conn, query = query) :
  Could not find a simple features geometry column. Will return a `data.frame`.
5: In st_read.DBIObject(conn, query = query) :
  Could not find a simple features geometry column. Will return a `data.frame`.
6: In st_read.DBIObject(conn, query = query) :
  Could not find a simple features geometry column. Will return a `data.frame`.
7: In st_read.DBIObject(conn, query = query) :
  Could not find a simple features geometry column. Will return a `data.frame`.
# A tibble: 29,425 × 5
   id_segment mapping_code_bt    mapping_code_ch mapping_code_co mapping_code_pk
        <int> <chr>              <chr>           <chr>           <chr>          
 1      14299 "ACCESS;MODELLED;… ""              ""              ""             
 2      14302 "ACCESS;NONE"      ""              ""              ""             
 3      14303 "REAR;MODELLED"    ""              ""              ""             
 4      14304 "SPAWN;MODELLED"   ""              ""              ""             
 5      21226 "REAR;NONE"        "ACCESS;NONE"   "ACCESS;NONE"   "ACCESS;NONE"  
 6      21227 "SPAWN;MODELLED"   "ACCESS;MODELL… "SPAWN;MODELLE… "SPAWN;MODELLE…
 7      21260 "ACCESS;MODELLED"  "ACCESS;MODELL… "ACCESS;MODELL… "ACCESS;MODELL…
 8      14317 ""                 ""              ""              ""             
 9      14318 ""                 ""              ""              ""             
10      14319 ""                 ""              ""              ""             
# ℹ 29,415 more rows
…
Warning messages:
1: In st_read.DBIObject(conn, query = query) :
  Could not find a simple features geometry column. Will return a `data.frame`.
2: In st_read.DBIObject(conn, query = query) :
  Could not find a simple features geometry column. Will return a `data.frame`.
3: In st_read.DBIObject(conn, query = query) :
  Could not find a simple features geometry column. Will return a `data.frame`.
4: In st_read.DBIObject(conn, query = query) :
  Could not find a simple features geometry column. Will return a `data.frame`.
# A tibble: 22,642 × 2
   id_segment mapping_code_bt             
        <int> <chr>                       
 1      11027 ACCESS;DAM;INTERMITTENT     
 2      22392 SPAWN;DAM                   
 3      22393 SPAWN;DAM                   
 4      22412 REAR;DAM                    
 5      22391 SPAWN;DAM                   
 6      11026 ACCESS;MODELLED             
 7      11064 ACCESS;ASSESSED             
 8      11028 ACCESS;MODELLED;INTERMITTENT
 9      13456 REAR;DAM                    
10      11031 ACCESS;ASSESSED;INTERMITTENT
# ℹ 22,632 more rows
…
1: In st_read.DBIObject(conn, query = query) :
  Could not find a simple features geometry column. Will return a `data.frame`.
2: In st_read.DBIObject(conn, query = query) :
  Could not find a simple features geometry column. Will return a `data.frame`.
3: In st_read.DBIObject(conn, query = query) :
  Could not find a simple features geometry column. Will return a `data.frame`.
4: In st_read.DBIObject(conn, query = query) :
  Could not find a simple features geometry column. Will return a `data.frame`.
5: In st_read.DBIObject(conn, query = query) :
  Could not find a simple features geometry column. Will return a `data.frame`.
6: In st_read.DBIObject(conn, query = query) :
  Could not find a simple features geometry column. Will return a `data.frame`.
7: In st_read.DBIObject(conn, query = query) :
  Could not find a simple features geometry column. Will return a `data.frame`.
# A tibble: 13,535 × 5
   id_segment mapping_code_bt    mapping_code_ch mapping_code_co mapping_code_sk
        <int> <chr>              <chr>           <chr>           <chr>          
 1       1225 ""                 ""              ""              ""             
 2       1294 "ACCESS;NONE;INTE… ""              ""              ""             
 3       1229 ""                 ""              ""              ""             
 4       1230 ""                 ""              ""              ""             
 5       1238 "ACCESS;NONE;INTE… ""              ""              ""             
 6       1253 ""                 ""              ""              ""             
 7       1254 ""                 ""              ""              ""             
 8       1255 "ACCESS;MODELLED;… ""              ""              ""             
 9       1257 "ACCESS;MODELLED"  ""              ""              ""             
10       1514 "ACCESS;NONE;INTE… "ACCESS;NONE;I… "ACCESS;NONE;I… "ACCESS;NONE;I…
# ℹ 13,525 more rows
…
Warning messages:
1: In st_read.DBIObject(conn, query = query) :
  Could not find a simple features geometry column. Will return a `data.frame`.
2: In st_read.DBIObject(conn, query = query) :
  Could not find a simple features geometry column. Will return a `data.frame`.
3: In st_read.DBIObject(conn, query = query) :
  Could not find a simple features geometry column. Will return a `data.frame`.
4: In st_read.DBIObject(conn, query = query) :
  Could not find a simple features geometry column. Will return a `data.frame`.
# A tibble: 26,094 × 2
   id_segment mapping_code_bt
        <int> <chr>          
 1       2966 ""             
 2      16418 ""             
 3      16534 "ACCESS;DAM"   
 4      17865 "SPAWN;DAM"    
 5         76 "REAR;DAM"     
 6        160 "REAR;DAM"     
 7       9848 "ACCESS;DAM"   
 8       9933 ""             
 9      23260 "REAR;MODELLED"
10        245 "REAR;DAM"     
# ℹ 26,084 more rows
…
Warning messages:
1: In st_read.DBIObject(conn, query = query) :
  Could not find a simple features geometry column. Will return a `data.frame`.
2: In st_read.DBIObject(conn, query = query) :
  Could not find a simple features geometry column. Will return a `data.frame`.
3: In st_read.DBIObject(conn, query = query) :
  Could not find a simple features geometry column. Will return a `data.frame`.
4: In st_read.DBIObject(conn, query = query) :
  Could not find a simple features geometry column. Will return a `data.frame`.
# A tibble: 43,850 × 2
   id_segment mapping_code_bt  
        <int> <chr>            
 1        460 "SPAWN;DAM"      
 2      26722 "SPAWN;DAM"      
 3      13205 ""               
 4       9242 ""               
 5        573 "SPAWN;DAM"      
 6        658 "ACCESS;DAM"     
 7      13887 "ACCESS;MODELLED"
 8       1512 ""               
 9        207 "SPAWN;DAM"      
10      10082 ""               
# ℹ 43,840 more rows
…
Warning messages:
1: In st_read.DBIObject(conn, query = query) :
  Could not find a simple features geometry column. Will return a `data.frame`.
2: In st_read.DBIObject(conn, query = query) :
  Could not find a simple features geometry column. Will return a `data.frame`.
3: In st_read.DBIObject(conn, query = query) :
  Could not find a simple features geometry column. Will return a `data.frame`.
4: In st_read.DBIObject(conn, query = query) :
  Could not find a simple features geometry column. Will return a `data.frame`.
# A tibble: 31,882 × 2
   id_segment mapping_code_bt
        <int> <chr>          
 1       5371 ""             
 2      14843 "ACCESS;DAM"   
 3      29273 "SPAWN;DAM"    
 4       4954 ""             
 5      24808 "SPAWN;DAM"    
 6      24810 "SPAWN;DAM"    
 7      24811 "SPAWN;DAM"    
 8      24812 "SPAWN;DAM"    
 9      24813 "SPAWN;DAM"    
10      24814 "REAR;DAM"     
# ℹ 31,872 more rows
…
Warning messages:
1: In st_read.DBIObject(conn, query = query) :
  Could not find a simple features geometry column. Will return a `data.frame`.
2: In st_read.DBIObject(conn, query = query) :
  Could not find a simple features geometry column. Will return a `data.frame`.
3: In st_read.DBIObject(conn, query = query) :
  Could not find a simple features geometry column. Will return a `data.frame`.
4: In st_read.DBIObject(conn, query = query) :
  Could not find a simple features geometry column. Will return a `data.frame`.
# A tibble: 30,429 × 2
   id_segment mapping_code_bt          
        <int> <chr>                    
 1      21306 ""                       
 2      14501 "ACCESS;DAM;INTERMITTENT"
 3      15483 ""                       
 4      16186 "ACCESS;DAM;INTERMITTENT"
 5      15952 "REAR;DAM;INTERMITTENT"  
 6      12597 "ACCESS;DAM;INTERMITTENT"
 7      13145 "ACCESS;DAM;INTERMITTENT"
 8      14016 "ACCESS;DAM"             
 9      17119 "ACCESS;DAM;INTERMITTENT"
10      17200 "ACCESS;DAM;INTERMITTENT"
# ℹ 30,419 more rows
…
Warning messages:
1: In st_read.DBIObject(conn, query = query) :
  Could not find a simple features geometry column. Will return a `data.frame`.
2: In st_read.DBIObject(conn, query = query) :
  Could not find a simple features geometry column. Will return a `data.frame`.
3: In st_read.DBIObject(conn, query = query) :
  Could not find a simple features geometry column. Will return a `data.frame`.
4: In st_read.DBIObject(conn, query = query) :
  Could not find a simple features geometry column. Will return a `data.frame`.
5: In st_read.DBIObject(conn, query = query) :
  Could not find a simple features geometry column. Will return a `data.frame`.
6: In st_read.DBIObject(conn, query = query) :
  Could not find a simple features geometry column. Will return a `data.frame`.
# A tibble: 41,586 × 4
   id_segment mapping_code_bt                mapping_code_ch     mapping_code_sk
        <int> <chr>                          <chr>               <chr>          
 1      14059 "ACCESS;ASSESSED"              "ACCESS;ASSESSED"   "ACCESS;ASSESS…
 2      14060 "ACCESS;ASSESSED"              "ACCESS;ASSESSED"   "ACCESS;ASSESS…
 3      14061 "ACCESS;ASSESSED"              "ACCESS;ASSESSED"   "ACCESS;ASSESS…
 4      14062 "ACCESS;ASSESSED;INTERMITTENT" "ACCESS;ASSESSED;I… "ACCESS;ASSESS…
 5      14063 "ACCESS;ASSESSED;INTERMITTENT" ""                  ""             
 6      14064 "ACCESS;ASSESSED;INTERMITTENT" ""                  ""             
 7      14065 ""                             ""                  ""             
 8      14075 "ACCESS;NONE;INTERMITTENT"     ""                  ""             
 9      14076 ""                             ""                  ""             
10      14066 "REAR;MODELLED"                "ACCESS;MODELLED"   "ACCESS;MODELL…
# ℹ 41,576 more rows
…
