…
2: In st_read.DBIObject(conn, query = query) :
  Could not find a simple features geometry column. Will return a `data.frame`.
3: In st_read.DBIObject(conn, query = query) :
  Could not find a simple features geometry column. Will return a `data.frame`.
4: In st_read.DBIObject(conn, query = query) :
  Could not find a simple features geometry column. Will return a `data.frame`.
5: In st_read.DBIObject(conn, query = query) :
  Could not find a simple features geometry column. Will return a `data.frame`.
6: In st_read.DBIObject(conn, query = query) :
  Could not find a simple features geometry column. Will return a `data.frame`.
7: In st_read.DBIObject(conn, query = query) :
  Could not find a simple features geometry column. Will return a `data.frame`.
8: In st_read.DBIObject(conn, query = query) :
  Could not find a simple features geometry column. Will return a `data.frame`.
# A tibble: 24,165 × 6
   id_segment mapping_code_bt    mapping_code_rb mapping_code_ch mapping_code_co
        <int> <chr>              <chr>           <chr>           <chr>          
 1       4747 ""                 ""              ""              ""             
 2       4754 ""                 ""              ""              ""             
 3       4786 "ACCESS;MODELLED;… "ACCESS;MODELL… ""              ""             
 4       4835 "ACCESS;MODELLED"  "ACCESS;MODELL… ""              ""             
 5       4846 ""                 ""              ""              ""             
 6       4857 "ACCESS;NONE"      "ACCESS;NONE"   "ACCESS;NONE"   "ACCESS;NONE"  
 7       4875 "ACCESS;MODELLED;… "ACCESS;MODELL… "ACCESS;DAM;IN… "ACCESS;DAM;IN…
 8       4904 "SPAWN;NONE"       "SPAWN;NONE"    "SPAWN;NONE"    "SPAWN;NONE"   
 9       4925 "SPAWN;NONE"       "SPAWN;NONE"    "SPAWN;NONE"    "SPAWN;NONE"   
10       5071 "ACCESS;NONE"      "ACCESS;NONE"   "ACCESS;NONE"   "ACCESS;NONE"  
# ℹ 24,155 more rows
# ℹ 1 more variable: mapping_code_sk <chr>
…
4: In st_read.DBIObject(conn, query = query) :
  Could not find a simple features geometry column. Will return a `data.frame`.
5: In st_read.DBIObject(conn, query = query) :
  Could not find a simple features geometry column. Will return a `data.frame`.
6: In st_read.DBIObject(conn, query = query) :
  Could not find a simple features geometry column. Will return a `data.frame`.
7: In st_read.DBIObject(conn, query = query) :
  Could not find a simple features geometry column. Will return a `data.frame`.
8: In st_read.DBIObject(conn, query = query) :
  Could not find a simple features geometry column. Will return a `data.frame`.
9: In st_read.DBIObject(conn, query = query) :
  Could not find a simple features geometry column. Will return a `data.frame`.
10: In st_read.DBIObject(conn, query = query) :
  Could not find a simple features geometry column. Will return a `data.frame`.
# A tibble: 42,860 × 8
   id_segment mapping_code_bt    mapping_code_rb mapping_code_ch mapping_code_co
        <int> <chr>              <chr>           <chr>           <chr>          
 1      19050 "ACCESS;ASSESSED;… "REAR;ASSESSED… "ACCESS;ASSESS… "ACCESS;ASSESS…
 2      19025 ""                 ""              ""              ""             
 3       6689 ""                 ""              ""              ""             
 4      15214 "ACCESS;MODELLED"  "ACCESS;MODELL… ""              ""             
 5      23670 ""                 ""              ""              ""             
 6      32848 ""                 ""              ""              ""             
 7      14347 "ACCESS;ASSESSED"  "ACCESS;ASSESS… "ACCESS;ASSESS… "ACCESS;ASSESS…
 8       2272 "ACCESS;ASSESSED;… "ACCESS;ASSESS… ""              ""             
 9       2289 "ACCESS;NONE;INTE… "ACCESS;NONE;I… ""              ""             
10       2410 "ACCESS;NONE;INTE… "ACCESS;NONE;I… "ACCESS;NONE;I… "ACCESS;NONE;I…
# ℹ 42,850 more rows
# ℹ 3 more variables: mapping_code_pk <chr>, mapping_code_sk <chr>,
#   mapping_code_st <chr>
…
Warning messages:
1: In st_read.DBIObject(conn, query = query) :
  Could not find a simple features geometry column. Will return a `data.frame`.
2: In st_read.DBIObject(conn, query = query) :
  Could not find a simple features geometry column. Will return a `data.frame`.
3: In st_read.DBIObject(conn, query = query) :
  Could not find a simple features geometry column. Will return a `data.frame`.
4: In st_read.DBIObject(conn, query = query) :
  Could not find a simple features geometry column. Will return a `data.frame`.
5: In st_read.DBIObject(conn, query = query) :
  Could not find a simple features geometry column. Will return a `data.frame`.
6: In st_read.DBIObject(conn, query = query) :
  Could not find a simple features geometry column. Will return a `data.frame`.
# A tibble: 17,421 × 4
   id_segment mapping_code_bt                mapping_code_ko mapping_code_rb
        <int> <chr>                          <chr>           <chr>          
 1      13396 ""                             ""              ""             
 2        267 "ACCESS;ASSESSED;INTERMITTENT" ""              ""             
 3        268 "ACCESS;ASSESSED;INTERMITTENT" ""              ""             
 4        269 "ACCESS;ASSESSED;INTERMITTENT" ""              ""             
 5      13397 ""                             ""              ""             
 6       6273 "ACCESS;MODELLED;INTERMITTENT" ""              ""             
 7       6274 "ACCESS;ASSESSED"              ""              ""             
 8       6275 "ACCESS;ASSESSED"              ""              ""             
 9       6278 "REAR;MODELLED;INTERMITTENT"   ""              "REAR"         
10      11741 "SPAWN;MODELLED"               ""              "SPAWN"        
# ℹ 17,411 more rows
…
1: In st_read.DBIObject(conn, query = query) :
  Could not find a simple features geometry column. Will return a `data.frame`.
2: In st_read.DBIObject(conn, query = query) :
  Could not find a simple features geometry column. Will return a `data.frame`.
3: In st_read.DBIObject(conn, query = query) :
  Could not find a simple features geometry column. Will return a `data.frame`.
4: In st_read.DBIObject(conn, query = query) :
  Could not find a simple features geometry column. Will return a `data.frame`.
5: In st_read.DBIObject(conn, query = query) :
  Could not find a simple features geometry column. Will return a `data.frame`.
6: In st_read.DBIObject(conn, query = query) :
  Could not find a simple features geometry column. Will return a `data.frame`.
7: In st_read.DBIObject(conn, query = query) :
  Could not find a simple features geometry column. Will return a `data.frame`.
# A tibble: 9,332 × 5
   id_segment mapping_code_bt    mapping_code_rb mapping_code_ch mapping_code_sk
        <int> <chr>              <chr>           <chr>           <chr>          
 1       1564 "ACCESS;MODELLED;… "ACCESS;MODELL… "ACCESS;MODELL… "ACCESS;MODELL…
 2       1567 ""                 ""              ""              ""             
 3       1572 "ACCESS;NONE;INTE… "ACCESS;NONE;I… "ACCESS;NONE;I… "ACCESS;NONE;I…
 4       1520 "ACCESS;NONE;INTE… ""              ""              ""             
 5       1613 "SPAWN;MODELLED"   ""              ""              ""             
 6       1655 "REAR;MODELLED;IN… ""              ""              ""             
 7       1656 "ACCESS;MODELLED;… ""              ""              ""             
 8       1657 "REAR;NONE;INTERM… ""              ""              ""             
 9       1658 "ACCESS;NONE;INTE… ""              ""              ""             
10       1676 "ACCESS;NONE;INTE… ""              ""              ""             
# ℹ 9,322 more rows
[1] 9332
[wsg_recompute_one] CHES recomputed in 0.34 min (persist=fresh_default)
[1] 0
[1] 0
Warning message:
In read.table(file = file, header = header, sep = sep, quote = quote,  :
  incomplete final line found by readTableHeader on '/Users/airvine/Projects/repo/link/inst/extdata/configs/default/overrides/cabd_blkey_xref.csv'
NOTICE:  view "barriers_cm_unified" does not exist, skipping

NOTICE:  view "barriers_cm_access" does not exist, skipping

NOTICE:  table "zz_lnk_streams_chwk" does not exist, skipping

There were 11 warnings (use warnings() to see them)
# A tibble: 8,866 × 9
   id_segment mapping_code_bt mapping_code_rb mapping_code_ch mapping_code_cm
        <int> <chr>           <chr>           <chr>           <chr>          
 1       5218 "ACCESS;NONE"   "ACCESS;NONE"   "ACCESS;NONE"   "ACCESS;NONE"  
 2        115 "ACCESS;NONE"   "ACCESS;NONE"   "ACCESS;NONE"   "ACCESS;NONE"  
 3       5494 "ACCESS;DAM"    "ACCESS;DAM"    "ACCESS;DAM"    "ACCESS;DAM"   
 4        345 "ACCESS;NONE"   "ACCESS;NONE"   "ACCESS;NONE"   "ACCESS;NONE"  
 5         59 "ACCESS;NONE"   "ACCESS;NONE"   "ACCESS;NONE"   "ACCESS;NONE"  
 6        150 "ACCESS;NONE"   "ACCESS;NONE"   "ACCESS;NONE"   "ACCESS;NONE"  
 7        184 "SPAWN;NONE"    "SPAWN;NONE"    "SPAWN;NONE"    "SPAWN;NONE"   
 8       5509 ""              ""              ""              ""             
 9        155 "ACCESS;NONE"   "ACCESS;NONE"   "ACCESS;NONE"   "ACCESS;NONE"  
10       1663 ""              ""              ""              ""             
# ℹ 8,856 more rows
# ℹ 4 more variables: mapping_code_co <chr>, mapping_code_pk <chr>,
#   mapping_code_sk <chr>, mapping_code_st <chr>
…
2: In st_read.DBIObject(conn, query = query) :
  Could not find a simple features geometry column. Will return a `data.frame`.
3: In st_read.DBIObject(conn, query = query) :
  Could not find a simple features geometry column. Will return a `data.frame`.
4: In st_read.DBIObject(conn, query = query) :
  Could not find a simple features geometry column. Will return a `data.frame`.
5: In st_read.DBIObject(conn, query = query) :
  Could not find a simple features geometry column. Will return a `data.frame`.
6: In st_read.DBIObject(conn, query = query) :
  Could not find a simple features geometry column. Will return a `data.frame`.
7: In st_read.DBIObject(conn, query = query) :
  Could not find a simple features geometry column. Will return a `data.frame`.
8: In st_read.DBIObject(conn, query = query) :
  Could not find a simple features geometry column. Will return a `data.frame`.
# A tibble: 29,425 × 6
   id_segment mapping_code_bt    mapping_code_rb mapping_code_ch mapping_code_co
        <int> <chr>              <chr>           <chr>           <chr>          
 1        503 ACCESS;NONE        ACCESS;NONE     "ACCESS;NONE"   "ACCESS;NONE"  
 2       1863 ACCESS;MODELLED;I… ACCESS;MODELLE… "ACCESS;MODELL… "ACCESS;MODELL…
 3       7067 ACCESS;MODELLED    ACCESS;MODELLED "ACCESS;MODELL… "ACCESS;MODELL…
 4       8325 ACCESS;NONE        ACCESS;NONE     "ACCESS;NONE"   "ACCESS;NONE"  
 5        548 ACCESS;NONE        ACCESS;NONE     "ACCESS;NONE"   "ACCESS;NONE"  
 6      16363 ACCESS;NONE        ACCESS;NONE     ""              ""             
 7      13008 ACCESS;NONE        ACCESS;NONE     "ACCESS;NONE"   "ACCESS;NONE"  
 8        206 SPAWN;NONE         SPAWN;NONE      "SPAWN;NONE"    "SPAWN;NONE"   
 9        418 ACCESS;NONE        ACCESS;NONE     "ACCESS;NONE"   "ACCESS;NONE"  
10       1201 ACCESS;MODELLED    ACCESS;MODELLED "ACCESS;MODELL… "ACCESS;MODELL…
# ℹ 29,415 more rows
# ℹ 1 more variable: mapping_code_pk <chr>
…
Warning messages:
1: In st_read.DBIObject(conn, query = query) :
  Could not find a simple features geometry column. Will return a `data.frame`.
2: In st_read.DBIObject(conn, query = query) :
  Could not find a simple features geometry column. Will return a `data.frame`.
3: In st_read.DBIObject(conn, query = query) :
  Could not find a simple features geometry column. Will return a `data.frame`.
4: In st_read.DBIObject(conn, query = query) :
  Could not find a simple features geometry column. Will return a `data.frame`.
5: In st_read.DBIObject(conn, query = query) :
  Could not find a simple features geometry column. Will return a `data.frame`.
# A tibble: 22,641 × 3
   id_segment mapping_code_bt              mapping_code_rb
        <int> <chr>                        <chr>          
 1      13388 ACCESS;ASSESSED              ""             
 2      10993 ACCESS;MODELLED;INTERMITTENT ""             
 3      10991 ACCESS;MODELLED;INTERMITTENT ""             
 4      10996 ACCESS;MODELLED              ""             
 5      22376 ACCESS;DAM                   ""             
 6      10997 ACCESS;MODELLED              ""             
 7      10998 ACCESS;MODELLED              ""             
 8      11000 ACCESS;MODELLED              ""             
 9      11001 REAR;ASSESSED                "REAR"         
10      14507 ACCESS;MODELLED;INTERMITTENT ""             
# ℹ 22,631 more rows
…
2: In st_read.DBIObject(conn, query = query) :
  Could not find a simple features geometry column. Will return a `data.frame`.
3: In st_read.DBIObject(conn, query = query) :
  Could not find a simple features geometry column. Will return a `data.frame`.
4: In st_read.DBIObject(conn, query = query) :
  Could not find a simple features geometry column. Will return a `data.frame`.
5: In st_read.DBIObject(conn, query = query) :
  Could not find a simple features geometry column. Will return a `data.frame`.
6: In st_read.DBIObject(conn, query = query) :
  Could not find a simple features geometry column. Will return a `data.frame`.
7: In st_read.DBIObject(conn, query = query) :
  Could not find a simple features geometry column. Will return a `data.frame`.
8: In st_read.DBIObject(conn, query = query) :
  Could not find a simple features geometry column. Will return a `data.frame`.
# A tibble: 13,535 × 6
   id_segment mapping_code_bt    mapping_code_rb mapping_code_ch mapping_code_co
        <int> <chr>              <chr>           <chr>           <chr>          
 1       6106 ""                 ""              ""              ""             
 2       3227 "ACCESS;NONE"      "ACCESS;NONE"   "ACCESS;NONE"   "ACCESS;NONE"  
 3      12769 ""                 ""              ""              ""             
 4      10023 ""                 ""              ""              ""             
 5       3150 ""                 ""              ""              ""             
 6        616 "ACCESS;MODELLED;… "ACCESS;MODELL… ""              ""             
 7       4444 ""                 ""              ""              ""             
 8       3685 ""                 ""              ""              ""             
 9       6104 ""                 ""              ""              ""             
10        234 ""                 ""              ""              ""             
# ℹ 13,525 more rows
# ℹ 1 more variable: mapping_code_sk <chr>
…
Warning messages:
1: In st_read.DBIObject(conn, query = query) :
  Could not find a simple features geometry column. Will return a `data.frame`.
2: In st_read.DBIObject(conn, query = query) :
  Could not find a simple features geometry column. Will return a `data.frame`.
3: In st_read.DBIObject(conn, query = query) :
  Could not find a simple features geometry column. Will return a `data.frame`.
4: In st_read.DBIObject(conn, query = query) :
  Could not find a simple features geometry column. Will return a `data.frame`.
5: In st_read.DBIObject(conn, query = query) :
  Could not find a simple features geometry column. Will return a `data.frame`.
6: In st_read.DBIObject(conn, query = query) :
  Could not find a simple features geometry column. Will return a `data.frame`.
# A tibble: 26,094 × 4
   id_segment mapping_code_bt                mapping_code_rb mapping_code_gr    
        <int> <chr>                          <chr>           <chr>              
 1      15146 "ACCESS;DAM;INTERMITTENT"      ""              "ACCESS;DAM;INTERM…
 2      15147 ""                             ""              ""                 
 3      15148 ""                             ""              ""                 
 4      15149 ""                             ""              ""                 
 5      15150 ""                             ""              ""                 
 6      15151 "REAR;MODELLED"                "REAR"          "ACCESS;MODELLED"  
 7      15153 "ACCESS;MODELLED;INTERMITTENT" ""              ""                 
 8      15158 "REAR;MODELLED"                "REAR"          "ACCESS;MODELLED"  
 9      24501 "SPAWN;MODELLED"               "SPAWN"         "ACCESS;MODELLED"  
10      15159 "ACCESS;MODELLED"              ""              "ACCESS;MODELLED"  
# ℹ 26,084 more rows
…
Warning messages:
1: In st_read.DBIObject(conn, query = query) :
  Could not find a simple features geometry column. Will return a `data.frame`.
2: In st_read.DBIObject(conn, query = query) :
  Could not find a simple features geometry column. Will return a `data.frame`.
3: In st_read.DBIObject(conn, query = query) :
  Could not find a simple features geometry column. Will return a `data.frame`.
4: In st_read.DBIObject(conn, query = query) :
  Could not find a simple features geometry column. Will return a `data.frame`.
5: In st_read.DBIObject(conn, query = query) :
  Could not find a simple features geometry column. Will return a `data.frame`.
6: In st_read.DBIObject(conn, query = query) :
  Could not find a simple features geometry column. Will return a `data.frame`.
# A tibble: 43,850 × 4
   id_segment mapping_code_bt mapping_code_rb mapping_code_gr
        <int> <chr>           <chr>           <chr>          
 1        460 "SPAWN;DAM"     "SPAWN"         "SPAWN;DAM"    
 2      26722 "SPAWN;DAM"     "SPAWN"         "SPAWN;DAM"    
 3      13205 ""              ""              ""             
 4       9242 ""              ""              ""             
 5        573 "SPAWN;DAM"     "SPAWN"         "SPAWN;DAM"    
 6        658 "ACCESS;DAM"    ""              "ACCESS;DAM"   
 7      13887 "REAR;MODELLED" "REAR"          ""             
 8       1512 ""              ""              ""             
 9        207 "SPAWN;DAM"     "SPAWN"         "SPAWN;DAM"    
10      10082 ""              ""              ""             
# ℹ 43,840 more rows
…
Warning messages:
1: In st_read.DBIObject(conn, query = query) :
  Could not find a simple features geometry column. Will return a `data.frame`.
2: In st_read.DBIObject(conn, query = query) :
  Could not find a simple features geometry column. Will return a `data.frame`.
3: In st_read.DBIObject(conn, query = query) :
  Could not find a simple features geometry column. Will return a `data.frame`.
4: In st_read.DBIObject(conn, query = query) :
  Could not find a simple features geometry column. Will return a `data.frame`.
5: In st_read.DBIObject(conn, query = query) :
  Could not find a simple features geometry column. Will return a `data.frame`.
6: In st_read.DBIObject(conn, query = query) :
  Could not find a simple features geometry column. Will return a `data.frame`.
# A tibble: 31,882 × 4
   id_segment mapping_code_bt mapping_code_rb mapping_code_gr
        <int> <chr>           <chr>           <chr>          
 1       5371 ""              ""              ""             
 2      14843 "REAR;DAM"      "REAR"          "ACCESS;DAM"   
 3      29273 "SPAWN;DAM"     ""              ""             
 4       4954 ""              ""              ""             
 5        344 "SPAWN;DAM"     "SPAWN"         "SPAWN;DAM"    
 6      25290 "ACCESS;DAM"    ""              ""             
 7      11020 ""              ""              ""             
 8        368 ""              ""              ""             
 9      30725 "ACCESS;DAM"    ""              ""             
10      13554 ""              ""              ""             
# ℹ 31,872 more rows
…
